{
  "variables": {
      "vm_name": "debian-11.5.0-amd64",
      "numvcpus": "1",
      "memsize": "1024",
      "disk_size": "8192",
      "debian_version": "11.5.0",
      "iso_url": "https://ftp.se.debian.org/debian-cd/current/amd64/iso-cd/debian-11.5.0-amd64-netinst.iso",
      "iso_checksum": "e307d0e583b4a8f7e5b436f8413d4707dd4242b70aea61eb08591dc0378522f3",
      "ssh_username" : "packer",
      "ssh_password" : "packer",
      "boot_wait": "10s"
    },
    "builders": [
      {
        "type": "vmware-iso",
        "boot_command": ["e<down><down><down><end>priority=critical auto=true preseed/url=http://{{ .HTTPIP }}:{{ .HTTPPort }}/preseed.cfg<leftCtrlOn>x<leftCtrlOff>"],
        "boot_wait": "{{ user `boot_wait` }}",
        "disk_size": "{{ user `disk_size` }}",
        "disk_type_id": "0",
        "guest_os_type": "debian10-64",
        "headless": false,
        "http_directory": "http",
        "iso_checksum": "{{ user `iso_checksum` }}",
        "iso_url": "{{ user `iso_url` }}",
        "shutdown_command": "echo 'packer'|sudo -S shutdown -P now",
        "ssh_password": "{{ user `ssh_password` }}",
        "ssh_port": 22,
        "ssh_username": "{{ user `ssh_username` }}",
        "ssh_timeout": "30m",
        "vm_name": "{{ user `vm_name` }}",
        "vmx_data": {
          "memsize": "{{ user `memsize` }}",
          "numvcpus": "{{ user `numvcpus` }}",
          "virtualHW.version": "14",
          "firmware": "efi"
        }
      },
      {
        "type": "virtualbox-iso",
        "boot_command": ["e<down><down><down><end>priority=critical auto=true preseed/url=http://{{ .HTTPIP }}:{{ .HTTPPort }}/preseed.cfg<leftCtrlOn>x<leftCtrlOff>"],
        "boot_wait": "{{ user `boot_wait` }}",
        "disk_size": "{{ user `disk_size` }}",
        "headless": false,
        "guest_os_type": "Debian_64",
        "http_directory": "http",
        "iso_checksum": "{{ user `iso_checksum` }}",
        "iso_url": "{{ user `iso_url` }}",
        "shutdown_command": "echo 'packer'|sudo -S shutdown -P now",
        "ssh_password": "{{ user `ssh_password` }}",
        "ssh_port": 22,
        "ssh_username": "{{ user `ssh_username` }}",
        "ssh_timeout": "30m",
        "vm_name": "{{ user `vm_name` }}",
        "iso_interface": "sata",
        "vboxmanage": [
          ["modifyvm", "{{.Name}}", "--memory", "{{ user `memsize` }}"],
          ["modifyvm", "{{.Name}}", "--cpus", "{{ user `numvcpus` }}"],
          ["modifyvm", "{{.Name}}", "--firmware", "EFI"]
        ]
      },
      {
        "type": "hyperv-iso",
        "boot_command": ["e<wait3s><down><down><down><end>priority=critical auto=true preseed/url=http://{{ .HTTPIP }}:{{ .HTTPPort }}/preseed.cfg<leftCtrlOn>x<leftCtrlOff>"],
        "boot_wait": "{{ user `boot_wait` }}",
        "disk_size": "{{ user `disk_size` }}",
        "headless": false,
        "http_directory": "http",
        "iso_checksum": "{{ user `iso_checksum` }}",
        "iso_url": "{{ user `iso_url` }}",
        "shutdown_command": "echo 'packer'|sudo -S shutdown -P now",
        "ssh_password": "{{ user `ssh_password` }}",
        "ssh_port": 22,
        "ssh_username": "{{ user `ssh_username` }}",
        "ssh_timeout": "30m",
        "vm_name": "{{ user `vm_name` }}",
        "generation": "2",
        "switch_name": "Default Switch",
        "skip_export": true
      }
  ],
  "provisioners": [
    {
      "type": "ansible",
      "playbook_file": "scripts/setup.yml"
    }
  ]
}
